%YAML 1.1
%TAG !u! tag:unity3d.com,2011:
--- !u!114 &11400000
MonoBehaviour:
  m_ObjectHideFlags: 0
  m_CorrespondingSourceObject: {fileID: 0}
  m_PrefabInstance: {fileID: 0}
  m_PrefabAsset: {fileID: 0}
  m_GameObject: {fileID: 0}
  m_Enabled: 1
  m_EditorHideFlags: 0
  m_Script: {fileID: 11500000, guid: 9f3758f8f58fdef43803eb9be1df0608, type: 3}
  m_Name: PhotonServerSettings
  m_EditorClassIdentifier: 
  AppSettings:
    AppIdRealtime: ba64ef10-b515-4c22-bcab-2c36e3ffe69e
    AppIdChat: 
    AppIdVoice: 
    AppVersion: 
    UseNameServer: 1
    FixedRegion: 
    Server: 
    Port: 0
    Protocol: 0
    EnableLobbyStatistics: 0
    NetworkLogging: 1
  StartInOfflineMode: 0
  PunLogging: 2
  EnableSupportLogger: 0
  RunInBackground: 1
  RpcList:
  - DestroySpaceship
  - Fire
  - RespawnSpaceship
  - RpcChgSkin
  DisableAutoOpenWizard: 1
  ShowSettings: 1
